<svg width="90" height="92" viewBox="0 0 90 92" fill="none" xmlns="http://www.w3.org/2000/svg">
<path d="M45.0004 3.95215C20.6867 3.95215 0.976562 23.6622 0.976562 47.9759C0.976562 59.0388 5.05798 69.1474 11.7961 76.8812L26.0025 87.6998C31.7542 90.4555 38.1969 91.9997 45.0004 91.9997C69.3141 91.9997 89.0242 72.2896 89.0242 47.9759C89.0242 23.6622 69.3141 3.95215 45.0004 3.95215Z" fill="#FFC839"/>
<path d="M47.8515 75.6926L47.7408 75.4903C47.1002 74.3198 47.5336 72.8379 48.7041 72.1973L48.8388 72.1237C47.6127 72.7948 46.0603 72.3407 45.3892 71.1147C44.7181 69.8887 45.1721 68.3364 46.3981 67.6653C45.172 68.3364 43.6198 67.8823 42.9485 66.6561C42.2774 65.43 42.7314 63.8778 43.9575 63.2065C42.7313 63.8776 41.1789 63.4236 40.5078 62.1974C39.8367 60.9714 40.2907 59.4191 41.5169 58.7477L44.828 56.9352L44.3233 56.0133C43.9526 55.336 43.3093 54.85 42.5566 54.6782C39.8047 54.0505 36.9478 55.1603 35.3413 57.4809C33.894 59.63 35.3499 57.0093 31.6814 65.4228C31.4447 65.9841 31.0252 66.4488 30.4908 66.7415L11.7959 76.8814C15.7228 81.3887 20.5519 85.0887 26.0024 87.7001L39.2087 80.5368C39.5707 80.3386 39.9734 80.2261 40.3858 80.208L44.4006 80.0317C44.8129 80.0136 45.2156 79.9011 45.5777 79.7029L50.8853 76.7973L50.7146 76.8392C49.6327 77.1822 48.4159 76.7235 47.8515 75.6926Z" fill="#FCAD6D"/>
<path d="M55.6266 74.2564L42.4437 50.1016L33.1797 52.2355L47.6018 78.6604C48.8179 80.8765 51.6002 81.687 53.8163 80.4709C56.0322 79.2548 56.8427 76.4725 55.6266 74.2564Z" fill="#3C58A0"/>
<path d="M41.4965 58.2013C40.4754 56.3303 41.5222 54.0013 43.5992 53.5228L44.2312 53.3773L42.4435 50.1016L33.1797 52.2357L47.6018 78.6606C48.7944 80.8339 51.4933 81.6542 53.6873 80.5378L41.4965 58.2013Z" fill="#2A428C"/>
<path d="M47.5749 75.8438L47.4642 75.6415C46.8235 74.471 47.2571 72.9891 48.4275 72.3483L55.2449 68.6166C56.4154 67.9758 57.8972 68.4094 58.538 69.5799L58.6487 69.7822C59.2895 70.9527 58.8559 72.4346 57.6854 73.0753L50.8681 76.8071C49.6976 77.4479 48.2157 77.0143 47.5749 75.8438Z" fill="#F9BA8F"/>
<path d="M45.1121 71.2662C44.4409 70.04 44.895 68.4877 46.1212 67.8166L54.2946 63.3425C55.5208 62.6714 57.0731 63.1255 57.7443 64.3515C58.4154 65.5775 57.9613 67.1298 56.7353 67.8011L48.5619 72.2752C47.3355 72.9465 45.7832 72.4922 45.1121 71.2662Z" fill="#F9BA8F"/>
<path d="M42.6717 66.8082C42.0005 65.582 42.4546 64.0297 43.6806 63.3586L52.3626 58.6062C53.5887 57.9351 55.1411 58.3892 55.8122 59.6152C56.4833 60.8413 56.0293 62.3937 54.8032 63.0648L46.1213 67.8172C44.8951 68.4883 43.3428 68.0342 42.6717 66.8082Z" fill="#F9BA8F"/>
<path d="M52.3049 55.7403C51.6338 54.5142 50.0815 54.0601 48.8553 54.7312L41.2403 58.8994C40.0141 59.5705 39.56 61.1229 40.2313 62.349C40.9025 63.5752 42.4548 64.0293 43.681 63.358L51.2958 59.1898C52.522 58.5187 52.976 56.9665 52.3049 55.7403Z" fill="#F9BA8F"/>
<path d="M30.7783 66.5568C30.8922 68.1479 31.5716 70.6095 34.606 71.1828C36.6239 71.5641 38.6661 69 38.6661 69C41.2201 65.4318 41.2327 62.7979 41.0595 61.6508C41.0444 61.5514 41.1785 61.5065 41.2268 61.5945L41.8782 62.7844C42.1062 63.2009 42.4045 63.554 42.7496 63.8388C43.5678 64.4347 44.6876 64.545 45.6342 64.027C46.5098 63.5476 47.0134 62.6534 47.0357 61.7223C47.0614 60.6514 46.5804 60.1829 44.3233 56.0133C44.1525 55.7013 43.9011 55.3969 43.5863 55.1585C43.5852 55.1578 43.5843 55.1569 43.5834 55.1561C43.2885 54.9333 42.9385 54.7653 42.5568 54.6782C39.8049 54.0505 36.9481 55.1603 35.3415 57.4809C33.8943 59.63 35.3501 57.0093 31.6816 65.4228C31.4892 65.8788 31.1749 66.2689 30.7783 66.5568Z" fill="#FCAD6D"/>
<path d="M43.8591 60.4705L45.0203 62.5917C45.3261 63.1503 46.0003 63.3848 46.5796 63.162C46.8649 62.7351 47.0236 62.2345 47.0358 61.7223C47.0586 60.7711 46.6615 60.3292 45.488 58.1406L44.3601 58.758C43.7513 59.0912 43.526 59.8619 43.8591 60.4705Z" fill="#F9DFCD"/>
<path d="M35.6016 70.2534C35.4311 69.9388 35.4924 69.5372 35.7713 69.289C40.4041 65.167 39.7181 60.5855 39.7107 60.5397C39.6405 60.1099 39.9323 59.7047 40.3621 59.6344C40.7921 59.5643 41.1975 59.856 41.2672 60.2858C41.3033 60.5077 42.0932 65.7751 36.8197 70.4672C36.4943 70.7567 35.9959 70.7276 35.7064 70.4024C35.6649 70.3558 35.63 70.3059 35.6016 70.2534Z" fill="#FD995B"/>
<path d="M28.8088 51.5142L23.6217 28.9958C23.5872 28.8456 23.5716 28.6957 23.5707 28.5479C17.448 30.282 13.7001 36.5355 15.1443 42.8052C16.5884 49.0748 22.6947 53.0587 28.9588 51.9394C28.895 51.8061 28.8435 51.6645 28.8088 51.5142Z" fill="#E9EFFF"/>
<path d="M16.4072 46.0504C18.868 50.3809 23.8612 52.8501 28.9591 51.9395C28.8951 51.8062 28.8436 51.6646 28.8089 51.5144L27.2327 44.6717C27.0949 44.6001 26.9525 44.5168 26.8059 44.4199C26.8063 44.4199 22.2907 49.1881 16.4072 46.0504Z" fill="#D3DCFB"/>
<path d="M57.7656 13.4453C53.0461 18.975 46.8548 23.0225 39.9385 25.1388C39.9471 25.1699 39.9575 25.2001 39.9649 25.2319L45.1519 47.7504C45.1593 47.7822 45.1631 47.8138 45.169 47.8456C52.3143 46.7229 59.6522 47.6539 66.3153 50.5617L77.4739 55.4313C76.8179 52.5829 66.3256 7.03298 65.6694 4.18457L57.7656 13.4453Z" fill="#E9EFFF"/>
<path d="M61.13 9.5035L66.7332 32.1517C67.6467 35.8443 64.6936 39.373 60.9002 39.0887C56.4175 38.7527 50.3994 38.8743 43.8732 40.597C43.8732 40.597 43.7936 40.7961 43.6074 41.0444L45.1522 47.7504C45.1596 47.7822 45.1635 47.8138 45.1693 47.8456C52.3145 46.7229 59.6524 47.6539 66.3156 50.5617L77.4742 55.4313C76.8182 52.5829 66.3259 7.03298 65.6696 4.18457L61.13 9.5035Z" fill="#D3DCFB"/>
<path d="M83.0879 23.4013C77.7305 23.698 74.209 21.2402 74.209 21.2402C74.6304 23.0698 77.2669 34.5157 77.6911 36.3573C77.6911 36.3573 79.7825 32.6067 84.7299 30.5297C85.5246 30.196 85.9724 29.3477 85.7789 28.5077L84.9158 24.7608C84.7223 23.9208 83.9486 23.3537 83.0879 23.4013Z" fill="#E9EFFF"/>
<path d="M85.2713 26.3044C84.3405 26.6806 83.5164 27.0781 82.8022 27.4691C80.8935 28.5136 78.5166 27.4466 78.0282 25.3263C77.8133 24.3936 77.6009 23.4714 77.4231 22.6993C75.3904 22.0632 74.209 21.2402 74.209 21.2402C74.6304 23.0698 77.2669 34.5157 77.6911 36.3573C77.6911 36.3573 79.7825 32.6067 84.7299 30.5297C85.5248 30.196 85.9724 29.3477 85.7789 28.5077L85.2713 26.3044Z" fill="#D3DCFB"/>
<path d="M80.4957 58.5452C79.1901 58.846 77.8881 58.0314 77.5873 56.7258L65.205 2.97089C64.9042 1.66528 65.7188 0.363264 67.0244 0.0624672C68.33 -0.23833 69.632 0.576194 69.9328 1.8818L82.3151 55.6368C82.6159 56.9424 81.8013 58.2444 80.4957 58.5452Z" fill="#FF4155"/>
<path d="M82.3166 55.6374L77.4265 34.4082C77.2359 35.4021 76.4801 36.2398 75.4306 36.4816C74.3541 36.7296 73.2808 36.2786 72.6826 35.427L77.5888 56.7263C77.8896 58.0319 79.1916 58.8464 80.4972 58.5456C81.8028 58.245 82.6174 56.9428 82.3166 55.6374Z" fill="#E80054"/>
<path d="M37.867 23.619L24.8041 26.628C23.705 26.8812 23.0191 27.9775 23.2723 29.0766L28.4593 51.595C28.7125 52.6942 29.8088 53.3799 30.9079 53.1267L43.9708 50.1177C45.07 49.8645 45.7559 48.7682 45.5025 47.669L40.3155 25.1506C40.0625 24.0517 38.9662 23.3658 37.867 23.619Z" fill="#FF4155"/>
<path d="M40.5653 41.8135L30.3373 44.1696C30.3373 44.1696 29.1174 45.9465 26.8066 44.4203L28.4594 51.5954C28.7126 52.6945 29.8089 53.3802 30.908 53.127L43.9709 50.118C45.0701 49.8648 45.7558 48.7685 45.5026 47.6694L43.8733 40.5967C43.8733 40.5967 43.066 42.6203 40.5653 41.8135Z" fill="#E80054"/>
<path d="M31.3936 26.7283C30.78 26.7283 30.2253 26.3063 30.0815 25.6829L29.189 21.808C29.0219 21.0827 29.4745 20.3591 30.1997 20.1922C30.9248 20.0242 31.6486 20.4777 31.8155 21.2029L32.708 25.0779C32.8751 25.8031 32.4225 26.5267 31.6973 26.6937C31.5956 26.717 31.4937 26.7283 31.3936 26.7283Z" fill="#BEC8F7"/>
<path d="M28.5392 23.0256C27.9255 23.0256 27.3708 22.6035 27.2271 21.9802C27.06 21.2549 27.5126 20.5313 28.2378 20.3644L32.0386 19.489C32.764 19.3213 33.4872 19.7743 33.6543 20.4997C33.8214 21.2249 33.3688 21.9485 32.6436 22.1155L28.8428 22.9909C28.7411 23.0144 28.6394 23.0256 28.5392 23.0256Z" fill="#E9EFFF"/>
<path d="M27.145 30.3146C26.9779 29.5894 27.4306 28.8658 28.1558 28.6989L35.7573 26.948C36.4825 26.7802 37.2059 27.2335 37.373 27.9588C37.5401 28.684 37.0875 29.4076 36.3623 29.5745L28.7608 31.3254C28.0372 31.4925 27.3123 31.0411 27.145 30.3146Z" fill="#CC0053"/>
<path d="M28.2095 34.9326C28.0424 34.2074 28.495 33.4838 29.2202 33.3168L36.8217 31.5659C37.547 31.3988 38.2704 31.8515 38.4375 32.5767C38.6046 33.3019 38.152 34.0255 37.4268 34.1925L29.8253 35.9433C29.1018 36.1104 28.3768 35.6591 28.2095 34.9326Z" fill="#CC0053"/>
<path d="M29.273 39.5509C29.1059 38.8257 29.5583 38.1021 30.2837 37.9352L37.8852 36.1841C38.6106 36.017 39.3339 36.4696 39.501 37.1949C39.6681 37.9201 39.2156 38.6437 38.4902 38.8106L30.8887 40.5617C30.1653 40.7288 29.4405 40.2774 29.273 39.5509Z" fill="#CC0053"/>
<path d="M30.3374 44.1702C30.1703 43.4449 30.6228 42.7213 31.3482 42.5544L38.9497 40.8034C39.6751 40.6359 40.3985 41.0889 40.5654 41.8141C40.7325 42.5393 40.2801 43.2629 39.5547 43.4299L31.9532 45.1809C31.2298 45.348 30.5047 44.8968 30.3374 44.1702Z" fill="#CC0053"/>
<path d="M31.4009 48.7883C31.2338 48.0631 31.6864 47.3395 32.4117 47.1725L40.0132 45.4216C40.738 45.2538 41.462 45.707 41.6289 46.4324C41.796 47.1576 41.3434 47.8812 40.6182 48.0482L33.0167 49.799C32.2932 49.9661 31.5682 49.515 31.4009 48.7883Z" fill="#CC0053"/>
<path d="M39.2087 80.537C26.9689 79.1576 30.7786 66.5572 30.7786 66.5566C30.6866 66.6235 30.5914 66.6866 30.4908 66.7417L11.7959 76.8817C15.7228 81.3889 20.5519 85.0889 26.0025 87.7003L39.2087 80.537Z" fill="#FD995B"/>
</svg>
